Show Absolute and Percent Change in a Time Series | Otho | Sidenotes
…
  save(dat_milkprods, file = dat_path)
  
} else {
  load(dat_path)
}

The original data come from USDA, but this version has been already tidied by Thomas Mock as part of the of the TidyTuesday, a weekly social data project that he organizes. So we have little data manipulation left to do.

The milkprods dataset is already tidy, but it stores many columns that we don’t need.

dat_milkprods %>% print()

## # A tibble: 43 x 18
##     year fluid_milk fluid_yogurt butter cheese_american cheese_other
##    <int>      <int>        <dbl>  <dbl>           <dbl>        <dbl>
##  1  1975        247         1.97   4.73            8.15         6.13
##  2  1976        247         2.13   4.31            8.88         6.63
##  3  1977        244         2.34   4.29            9.21         6.78
##  4  1978        241         2.45   4.35            9.53         7.31
##  5  1979        238         2.44   4.49            9.60         7.57
##  6  1980        234         2.50   4.47            9.62         7.90
##  7  1981        230         2.44   4.24           10.2          8.03
##  8  1982        224         2.58   4.35           11.3          8.60
##  9  1983        223         3.16   4.91           11.6          8.96
## 10  1984        224         3.55   4.98           11.9          9.62
## # ... with 33 more rows, and 12 more variables: cheese_cottage <dbl>,
## #   evap_cnd_canned_whole_milk <dbl>, evap_cnd_bulk_whole_milk <dbl>,
## #   evap_cnd_bulk_and_can_skim_milk <dbl>, frozen_ice_cream_regular <dbl>,
## #   frozen_ice_cream_reduced_fat <dbl>, frozen_sherbet <dbl>,
## #   frozen_other <dbl>, dry_whole_milk <dbl>, dry_nonfat_milk <dbl>,
## #   dry_buttermilk <dbl>, dry_whey <dbl>
…
# roll percent over a dataframe
roll_percent <- rollify(.f = function(n) (n[2] - n[1])*100/n[1], 2)

dat <- 
  dat_milkprods %>%
  select(year, butter) %>% 
  # apply on this dataframe, on the column butter
  mutate(percent = roll_percent(butter)) %>% 
  filter(complete.cases(.))

So, this is the clean dataframe that we use for plotting:

dat %>% print()

## # A tibble: 42 x 3
##     year butter percent
##    <int>  <dbl>   <dbl>
##  1  1976   4.31  -8.78 
##  2  1977   4.29  -0.441
##  3  1978   4.35   1.41 
##  4  1979   4.49   3.14 
##  5  1980   4.47  -0.528
##  6  1981   4.24  -5.13 
##  7  1982   4.35   2.67 
##  8  1983   4.91  12.8  
##  9  1984   4.98   1.42 
## 10  1985   4.87  -2.09 
## # ... with 32 more rows
…
