…
if(!file.exists(rd_path)) {
  rd <- 
    read_csv(rd_url)
  
  save(rd, file = rd_path)
  
} else {
  load(rd_path)
}

The rd dataset has this aspect.

rd %>% print()

## # A tibble: 588 x 6
##    department  year  rd_budget total_outlays discretionary_outl…       gdp
##    <chr>      <int>      <dbl>         <dbl>               <dbl>     <dbl>
##  1 DOD         1976    3.57e10  371800000000        175600000000   1.79e12
##  2 NASA        1976    1.25e10  371800000000        175600000000   1.79e12
##  3 DOE         1976    1.09e10  371800000000        175600000000   1.79e12
##  4 HHS         1976    9.23e 9  371800000000        175600000000   1.79e12
##  5 NIH         1976    8.02e 9  371800000000        175600000000   1.79e12
##  6 NSF         1976    2.37e 9  371800000000        175600000000   1.79e12
##  7 USDA        1976    1.84e 9  371800000000        175600000000   1.79e12
##  8 Interior    1976    1.15e 9  371800000000        175600000000   1.79e12
##  9 DOT         1976    1.14e 9  371800000000        175600000000   1.79e12
## 10 EPA         1976    9.68e 8  371800000000        175600000000   1.79e12
## # ... with 578 more rows
…
So, to make our variables comparable, we must scale them.

Probably, the most common scaling is by z-scores. But this introduce negative numbers. Since we are talking about fundings, negative fundings could be a bit unusual.

Thus I decided to scale fundings for each agency between 0 and 1, in this way we can make them comparable and present them in a more intuitive way.

# scale each variable between 0 and 1
rd_wide_01 <- 
  rd_wide %>%
  mutate_at(vars(-contains("year")), ~scales::rescale(., to = c(0,1)))

# this is how it looks after scaling
rd_wide_01 %>% print()

## # A tibble: 42 x 15
##     year   DHS     DOC    DOD   DOE   DOT    EPA    HHS Interior   NASA
##    <int> <dbl>   <dbl>  <dbl> <dbl> <dbl>  <dbl>  <dbl>    <dbl>  <dbl>
##  1  1976     0 0.111   0      0.264 0.876 0.693  0.0130   0.948  0.753 
##  2  1977     0 0.127   0.0387 0.704 0.802 0.690  0.0230   0.795  0.758 
##  3  1978     0 0.157   0.0226 1     0.898 1      0.0595   0.889  0.754 
##  4  1979     0 0.229   0.0252 0.992 0.658 0.892  0.0451   1      0.818 
##  5  1980     0 0.223   0.0223 0.933 0.728 0.596  0.0421   0.795  0.904 
##  6  1981     0 0.120   0.103  0.867 0.617 0.593  0.0279   0.594  0.840 
##  7  1982     0 0       0.191  0.461 0.183 0.208  0        0.323  0.504 
##  8  1983     0 0.00619 0.261  0.302 0.337 0      0.0198   0.255  0     
##  9  1984     0 0.0548  0.383  0.395 0.680 0.0252 0.0457   0.0852 0.0385
## 10  1985     0 0.0849  0.490  0.443 0.471 0.169  0.0791   0.142  0.146 
## # ... with 32 more rows, and 5 more variables: NIH <dbl>, NSF <dbl>,
## #   Other <dbl>, USDA <dbl>, VA <dbl>
…
