Explore US Government R&D Spendings | Otho | Sidenotes
…
if(!file.exists(rd_path)) {
  rd <- 
    read_csv(rd_url)
  
  save(rd, file = rd_path)
  
} else {
  load(rd_path)
}

The rd dataset has this aspect.

rd %>% print()

## # A tibble: 588 x 6
##    department  year  rd_budget total_outlays discretionary_outl…       gdp
##    <chr>      <int>      <dbl>         <dbl>               <dbl>     <dbl>
##  1 DOD         1976    3.57e10  371800000000        175600000000   1.79e12
##  2 NASA        1976    1.25e10  371800000000        175600000000   1.79e12
##  3 DOE         1976    1.09e10  371800000000        175600000000   1.79e12
##  4 HHS         1976    9.23e 9  371800000000        175600000000   1.79e12
##  5 NIH         1976    8.02e 9  371800000000        175600000000   1.79e12
##  6 NSF         1976    2.37e 9  371800000000        175600000000   1.79e12
##  7 USDA        1976    1.84e 9  371800000000        175600000000   1.79e12
##  8 Interior    1976    1.15e 9  371800000000        175600000000   1.79e12
##  9 DOT         1976    1.14e 9  371800000000        175600000000   1.79e12
## 10 EPA         1976    9.68e 8  371800000000        175600000000   1.79e12
## # ... with 578 more rows
…
Probably, the most common scaling is by z-scores. But, because z-scores are centered at 0. This introduces negative numbers, but spendings for R&D agencies are (hopefully ;) ) never negative.

Thus, I decided to rescale spendings for each agency between 0 and 1, in this way we can make them comparable and present them in a more intuitive way. Moreover, this kind of scaling preserves 0 as anchored point.

# scale each variable between 0 and 1
rd_wide_01 <- 
  rd_wide %>%
  mutate_at(vars(-contains("year")),
            ~scales::rescale(., to = c(0,1),
                             from = c(0, max(.))))

# this is how it looks after scaling
rd_wide_01 %>% print()

## # A tibble: 42 x 15
##     year   DHS   DOC   DOD   DOE   DOT   EPA   HHS Interior  NASA   NIH
##    <int> <dbl> <dbl> <dbl> <dbl> <dbl> <dbl> <dbl>    <dbl> <dbl> <dbl>
##  1  1976     0 0.449 0.378 0.695 0.935 0.824 0.250    0.980 0.852 0.227
##  2  1977     0 0.459 0.403 0.877 0.897 0.822 0.257    0.920 0.855 0.233
##  3  1978     0 0.478 0.392 1     0.947 1     0.285    0.957 0.853 0.249
##  4  1979     0 0.522 0.394 0.997 0.822 0.938 0.274    1     0.891 0.262
##  5  1980     0 0.518 0.392 0.972 0.858 0.769 0.272    0.920 0.943 0.257
##  6  1981     0 0.454 0.442 0.945 0.801 0.767 0.261    0.842 0.904 0.243
##  7  1982     0 0.380 0.497 0.776 0.575 0.546 0.240    0.736 0.703 0.235
##  8  1983     0 0.384 0.541 0.711 0.655 0.426 0.255    0.710 0.401 0.247
##  9  1984     0 0.414 0.616 0.749 0.834 0.441 0.274    0.644 0.424 0.272
## 10  1985     0 0.433 0.683 0.769 0.725 0.523 0.300    0.666 0.489 0.300
## # ... with 32 more rows, and 4 more variables: NSF <dbl>, Other <dbl>,
## #   USDA <dbl>, VA <dbl>
…
